<svg width="13" height="20" viewBox="0 0 13 20" fill="none" xmlns="http://www.w3.org/2000/svg">
<path d="M5.59998 13.91V18H2.59998V20H10.6V18H7.59998V13.91C8.99708 13.6739 10.2655 12.9509 11.1806 11.8692C12.0958 10.7875 12.5986 9.4169 12.6 8V0H0.599976V8C0.601376 9.4169 1.10417 10.7875 2.01937 11.8692C2.93447 12.9509 4.20288 13.6739 5.59998 13.91ZM2.59998 2H10.6V6H2.59998V2Z" fill="#FFB577"/>
</svg>
